GEN100.csv
GEN101.csv
GEN102.csv
GEN103.csv
GEN104.csv
GEN105.csv
GEN106.csv
GEN108.csv
GEN109.csv
GEN10.csv
GEN110.csv
GEN111.csv
GEN112.csv
GEN113.csv
GEN114.csv
GEN115.csv
GEN116.csv
GEN117.csv
GEN118.csv
GEN119.csv
GEN11.csv
GEN120.csv
GEN121.csv
GEN122.csv
GEN123.csv
GEN124.csv
GEN126.csv
GEN127.csv
GEN128.csv
GEN129.csv
GEN12.csv
GEN130.csv
GEN131.csv
GEN132.csv
GEN134.csv
GEN135.csv
GEN136.csv
GEN137.csv
GEN138.csv
GEN139.csv
GEN13.csv
GEN140.csv
GEN141.csv
GEN142.csv
GEN143.csv
GEN144.csv
GEN145.csv
GEN147.csv
GEN148.csv
GEN149.csv
GEN14.csv
GEN150.csv
GEN151.csv
GEN153.csv
GEN154.csv
GEN155.csv
GEN156.csv
GEN157.csv
GEN158.csv
GEN159.csv
GEN15.csv
GEN160.csv
GEN161.csv
GEN162.csv
GEN163.csv
GEN164.csv
GEN165.csv
GEN166.csv
GEN167.csv
GEN168.csv
GEN169.csv
GEN170.csv
GEN171.csv
GEN172.csv
GEN173.csv
GEN174.csv
GEN175.csv
GEN176.csv
GEN177.csv
GEN178.csv
GEN179.csv
GEN17.csv
GEN180.csv
GEN181.csv
GEN182.csv
GEN183.csv
GEN184.csv
GEN185.csv
GEN186.csv
GEN187.csv
GEN188.csv
GEN189.csv
GEN18.csv
GEN190.csv
GEN191.csv
GEN192.csv
GEN194.csv
GEN195.csv
GEN196.csv
GEN197.csv
GEN198.csv
GEN199.csv
GEN19.csv
GEN200.csv
GEN201.csv
GEN202.csv
GEN203.csv
GEN204.csv
GEN205.csv
GEN206.csv
GEN207.csv
GEN208.csv
GEN209.csv
GEN20.csv
GEN210.csv
GEN211.csv
GEN212.csv
GEN213.csv
GEN214.csv
GEN215.csv
GEN216.csv
GEN217.csv
GEN219.csv
GEN21.csv
GEN220.csv
GEN221.csv
GEN222.csv
GEN223.csv
GEN224.csv
GEN225.csv
GEN226.csv
GEN227.csv
GEN228.csv
GEN229.csv
GEN22.csv
GEN230.csv
GEN231.csv
GEN232.csv
GEN233.csv
GEN234.csv
GEN235.csv
GEN236.csv
GEN237.csv
GEN238.csv
GEN239.csv
GEN23.csv
GEN240.csv
GEN241.csv
GEN242.csv
GEN243.csv
GEN244.csv
GEN246.csv
GEN247.csv
GEN248.csv
GEN24.csv
GEN25.csv
GEN26.csv
GEN27.csv
GEN28.csv
GEN29.csv
GEN305.csv
GEN307.csv
GEN30.csv
GEN31.csv
GEN32.csv
GEN35.csv
GEN36.csv
GEN37.csv
GEN386.csv
GEN38.csv
GEN39.csv
GEN40.csv
GEN415.csv
GEN416.csv
GEN417.csv
GEN418.csv
GEN419.csv
GEN41.csv
GEN420.csv
GEN421.csv
GEN422.csv
GEN424.csv
GEN425.csv
GEN426.csv
GEN427.csv
GEN428.csv
GEN429.csv
GEN42.csv
GEN430.csv
GEN431.csv
GEN432.csv
GEN433.csv
GEN434.csv
GEN435.csv
GEN436.csv
GEN437.csv
GEN438.csv
GEN439.csv
GEN43.csv
GEN440.csv
GEN441.csv
GEN442.csv
GEN443.csv
GEN444.csv
GEN445.csv
GEN446.csv
GEN447.csv
GEN448.csv
GEN449.csv
GEN44.csv
GEN450.csv
GEN451.csv
GEN452.csv
GEN453.csv
GEN454.csv
GEN455.csv
GEN456.csv
GEN457.csv
GEN458.csv
GEN459.csv
GEN45.csv
GEN460.csv
GEN461.csv
GEN462.csv
GEN463.csv
GEN464.csv
GEN466.csv
GEN467.csv
GEN468.csv
GEN469.csv
GEN46.csv
GEN470.csv
GEN471.csv
GEN472.csv
GEN473.csv
GEN474.csv
GEN475.csv
GEN476.csv
GEN477.csv
GEN47.csv
GEN480.csv
GEN485.csv
GEN486.csv
GEN487.csv
GEN488.csv
GEN489.csv
GEN48.csv
GEN490.csv
GEN491.csv
GEN492.csv
GEN49.csv
GEN4.csv
GEN50.csv
GEN51.csv
GEN52.csv
GEN53.csv
GEN54.csv
GEN55.csv
GEN56.csv
GEN58.csv
GEN59.csv
GEN5.csv
GEN60.csv
GEN61.csv
GEN62.csv
GEN63.csv
GEN64.csv
GEN65.csv
GEN66.csv
GEN67.csv
GEN68.csv
GEN69.csv
GEN6.csv
GEN70.csv
GEN71.csv
GEN72.csv
GEN73.csv
GEN74.csv
GEN75.csv
GEN76.csv
GEN77.csv
GEN78.csv
GEN79.csv
GEN80.csv
GEN81.csv
GEN82.csv
GEN83.csv
GEN84.csv
GEN85.csv
GEN86.csv
GEN87.csv
GEN88.csv
GEN89.csv
GEN8.csv
GEN90.csv
GEN91.csv
GEN92.csv
GEN93.csv
GEN94.csv
GEN95.csv
GEN96.csv
GEN97.csv
GEN98.csv
GEN99.csv
